^D:\SCOALA\ANUL II OVI\CLOUDCOMPUTING ALIN\TEMA 12\SOURCE.CPP|D:\SCOALA\ANUL II OVI\CLOUDCOMPUTING ALIN\TEMA 12\VEHICLE.CPP
D:\SCOALA\ANUL II OVI\CLOUDCOMPUTING ALIN\TEMA 12\DEBUG\VC141.PDB
D:\SCOALA\ANUL II OVI\CLOUDCOMPUTING ALIN\TEMA 12\DEBUG\VC141.IDB
D:\SCOALA\ANUL II OVI\CLOUDCOMPUTING ALIN\TEMA 12\DEBUG\VEHICLE.OBJ
^D:\SCOALA\ANUL II OVI\CLOUDCOMPUTING ALIN\TEMA 12\VEHICLE.CPP
D:\SCOALA\ANUL II OVI\CLOUDCOMPUTING ALIN\TEMA 12\DEBUG\VEHICLE.OBJ
^D:\SCOALA\ANUL II OVI\CLOUDCOMPUTING ALIN\TEMA 12\SOURCE.CPP
D:\SCOALA\ANUL II OVI\CLOUDCOMPUTING ALIN\TEMA 12\DEBUG\VC141.PDB
D:\SCOALA\ANUL II OVI\CLOUDCOMPUTING ALIN\TEMA 12\DEBUG\VC141.IDB
D:\SCOALA\ANUL II OVI\CLOUDCOMPUTING ALIN\TEMA 12\DEBUG\SOURCE.OBJ
^D:\SCOALA\ANUL II OVI\CLOUDCOMPUTING A\TEMA 12\SOURCE.CPP|D:\SCOALA\ANUL II OVI\CLOUDCOMPUTING A\TEMA 12\VEHICLE.CPP
D:\SCOALA\ANUL II OVI\CLOUDCOMPUTING A\TEMA 12\DEBUG\VC141.PDB
D:\SCOALA\ANUL II OVI\CLOUDCOMPUTING A\TEMA 12\DEBUG\VC141.IDB
D:\SCOALA\ANUL II OVI\CLOUDCOMPUTING A\TEMA 12\DEBUG\VEHICLE.OBJ
D:\SCOALA\ANUL II OVI\CLOUDCOMPUTING A\TEMA 12\DEBUG\SOURCE.OBJ
^D:\SCOALA\ANUL II OVI\CLOUDCOMPUTING A\TEMA 12\SOURCE.CPP
D:\SCOALA\ANUL II OVI\CLOUDCOMPUTING A\TEMA 12\DEBUG\VC141.PDB
^D:\SCOALA\ANUL II OVI\CLOUDCOMPUTING A\TEMA 12\VEHICLE.CPP
D:\SCOALA\ANUL II OVI\CLOUDCOMPUTING A\TEMA 12\DEBUG\VC141.PDB
